{
  "version": 1,
  "tournamentMetaData": {
    "passbackDataPacket": "udes4",
    "passbackUrl": "http://70.55.195.92:8000/gameReport"
  },
  "gameId": 1250689040,
  "gameLength": 2187,
  "gameType": "CUSTOM_GAME",
  "ranked": false,
  "invalid": false,
  "gameMode": "CLASSIC",
  "teamPlayerParticipantsSummaries": [
    {
      "level": 30,
      "teamId": 100,
      "isWinningTeam": false,
      "leaver": false,
      "summonerName": "Songson",
      "skinName": "Tristana",
      "profileIconId": 591,
      "botPlayer": false,
      "spell1Id": 4,
      "spell2Id": 14,
      "statistics": [
        {
          "value": 3250,
          "statTypeName": "ITEM3",
          "m_nDataVersion": 0
        },
        {
          "value": 16,
          "statTypeName": "NEUTRAL_MINIONS_KILLED_YOUR_JUNGLE",
          "m_nDataVersion": 0
        },
        {
          "value": 3031,
          "statTypeName": "ITEM0",
          "m_nDataVersion": 0
        },
        {
          "value": 0,
          "statTypeName": "NEUTRAL_MINIONS_KILLED_ENEMY_JUNGLE",
          "m_nDataVersion": 0
        },
        {
          "value": 1557,
          "statTypeName": "TRUE_DAMAGE_DEALT_TO_CHAMPIONS",
          "m_nDataVersion": 0
        },
        {
          "value": 222,
          "statTypeName": "MINIONS_KILLED",
          "m_nDataVersion": 0
        },
        {
          "value": 25496,
          "statTypeName": "TOTAL_DAMAGE_TAKEN",
          "m_nDataVersion": 0
        },
        {
          "value": 1036,
          "statTypeName": "ITEM5",
          "m_nDataVersion": 0
        },
        {
          "value": 39504,
          "statTypeName": "MAGIC_DAMAGE_DEALT_PLAYER",
          "m_nDataVersion": 0
        },
        {
          "value": 3350,
          "statTypeName": "ITEM6",
          "m_nDataVersion": 0
        },
        {
          "value": 3046,
          "statTypeName": "ITEM1",
          "m_nDataVersion": 0
        },
        {
          "value": 289,
          "statTypeName": "TOTAL_TIME_SPENT_DEAD",
          "m_nDataVersion": 0
        },
        {
          "value": 103620,
          "statTypeName": "PHYSICAL_DAMAGE_DEALT_PLAYER",
          "m_nDataVersion": 0
        },
        {
          "value": 144714,
          "statTypeName": "TOTAL_DAMAGE_DEALT",
          "m_nDataVersion": 0
        },
        {
          "value": 2,
          "statTypeName": "ASSISTS",
          "m_nDataVersion": 0
        },
        {
          "value": 11665,
          "statTypeName": "MAGIC_DAMAGE_TAKEN",
          "m_nDataVersion": 0
        },
        {
          "value": 2,
          "statTypeName": "SIGHT_WARDS_BOUGHT_IN_GAME",
          "m_nDataVersion": 0
        },
        {
          "value": 18274,
          "statTypeName": "TOTAL_DAMAGE_DEALT_TO_CHAMPIONS",
          "m_nDataVersion": 0
        },
        {
          "value": 478,
          "statTypeName": "LARGEST_CRITICAL_STRIKE",
          "m_nDataVersion": 0
        },
        {
          "value": 111,
          "statTypeName": "TOTAL_TIME_CROWD_CONTROL_DEALT",
          "m_nDataVersion": 0
        },
        {
          "value": 13577,
          "statTypeName": "PHYSICAL_DAMAGE_TAKEN",
          "m_nDataVersion": 0
        },
        {
          "value": 0,
          "statTypeName": "WARD_KILLED",
          "m_nDataVersion": 0
        },
        {
          "value": 10510,
          "statTypeName": "PHYSICAL_DAMAGE_DEALT_TO_CHAMPIONS",
          "m_nDataVersion": 0
        },
        {
          "value": 740,
          "statTypeName": "TOTAL_HEAL",
          "m_nDataVersion": 0
        },
        {
          "value": 1,
          "statTypeName": "LARGEST_MULTI_KILL",
          "m_nDataVersion": 0
        },
        {
          "value": 0,
          "statTypeName": "BARRACKS_KILLED",
          "m_nDataVersion": 0
        },
        {
          "value": 1037,
          "statTypeName": "ITEM4",
          "m_nDataVersion": 0
        },
        {
          "value": 9,
          "statTypeName": "NUM_DEATHS",
          "m_nDataVersion": 0
        },
        {
          "value": 16,
          "statTypeName": "LEVEL",
          "m_nDataVersion": 0
        },
        {
          "value": 1,
          "statTypeName": "LOSE",
          "m_nDataVersion": 0
        },
        {
          "value": 14,
          "statTypeName": "WARD_PLACED",
          "m_nDataVersion": 0
        },
        {
          "value": 0,
          "statTypeName": "LARGEST_KILLING_SPREE",
          "m_nDataVersion": 0
        },
        {
          "value": 1053,
          "statTypeName": "ITEM2",
          "m_nDataVersion": 0
        },
        {
          "value": 1589,
          "statTypeName": "TRUE_DAMAGE_DEALT_PLAYER",
          "m_nDataVersion": 0
        },
        {
          "value": 11201,
          "statTypeName": "GOLD_EARNED",
          "m_nDataVersion": 0
        },
        {
          "value": 6206,
          "statTypeName": "MAGIC_DAMAGE_DEALT_TO_CHAMPIONS",
          "m_nDataVersion": 0
        },
        {
          "value": 0,
          "statTypeName": "VISION_WARDS_BOUGHT_IN_GAME",
          "m_nDataVersion": 0
        },
        {
          "value": 4,
          "statTypeName": "CHAMPIONS_KILLED",
          "m_nDataVersion": 0
        },
        {
          "value": 0,
          "statTypeName": "TURRETS_KILLED",
          "m_nDataVersion": 0
        },
        {
          "value": 16,
          "statTypeName": "NEUTRAL_MINIONS_KILLED",
          "m_nDataVersion": 0
        },
        {
          "value": 254,
          "statTypeName": "TRUE_DAMAGE_TAKEN",
          "m_nDataVersion": 0
        }
      ]
    },
    {
      "level": 30,
      "teamId": 100,
      "isWinningTeam": false,
      "leaver": false,
      "summonerName": "Carapas",
      "skinName": "Amumu",
      "profileIconId": 583,
      "botPlayer": false,
      "spell1Id": 4,
      "spell2Id": 11,
      "statistics": [
        {
          "value": 3001,
          "statTypeName": "ITEM3",
          "m_nDataVersion": 0
        },
        {
          "value": 9,
          "statTypeName": "NEUTRAL_MINIONS_KILLED_ENEMY_JUNGLE",
          "m_nDataVersion": 0
        },
        {
          "value": 3351,
          "statTypeName": "ITEM6",
          "m_nDataVersion": 0
        },
        {
          "value": 9774,
          "statTypeName": "MAGIC_DAMAGE_DEALT_TO_CHAMPIONS",
          "m_nDataVersion": 0
        },
        {
          "value": 149479,
          "statTypeName": "TOTAL_DAMAGE_DEALT",
          "m_nDataVersion": 0
        },
        {
          "value": 32357,
          "statTypeName": "TOTAL_DAMAGE_TAKEN",
          "m_nDataVersion": 0
        },
        {
          "value": 3143,
          "statTypeName": "ITEM0",
          "m_nDataVersion": 0
        },
        {
          "value": 99,
          "statTypeName": "NEUTRAL_MINIONS_KILLED",
          "m_nDataVersion": 0
        },
        {
          "value": 739,
          "statTypeName": "TOTAL_TIME_CROWD_CONTROL_DEALT",
          "m_nDataVersion": 0
        },
        {
          "value": 682,
          "statTypeName": "TRUE_DAMAGE_TAKEN",
          "m_nDataVersion": 0
        },
        {
          "value": 9,
          "statTypeName": "ASSISTS",
          "m_nDataVersion": 0
        },
        {
          "value": 11489,
          "statTypeName": "PHYSICAL_DAMAGE_TAKEN",
          "m_nDataVersion": 0
        },
        {
          "value": 231,
          "statTypeName": "TOTAL_TIME_SPENT_DEAD",
          "m_nDataVersion": 0
        },
        {
          "value": 0,
          "statTypeName": "LARGEST_CRITICAL_STRIKE",
          "m_nDataVersion": 0
        },
        {
          "value": 1841,
          "statTypeName": "PHYSICAL_DAMAGE_DEALT_TO_CHAMPIONS",
          "m_nDataVersion": 0
        },
        {
          "value": 1,
          "statTypeName": "WARD_KILLED",
          "m_nDataVersion": 0
        },
        {
          "value": 0,
          "statTypeName": "SIGHT_WARDS_BOUGHT_IN_GAME",
          "m_nDataVersion": 0
        },
        {
          "value": 3067,
          "statTypeName": "ITEM4",
          "m_nDataVersion": 0
        },
        {
          "value": 7502,
          "statTypeName": "TOTAL_HEAL",
          "m_nDataVersion": 0
        },
        {
          "value": 10049,
          "statTypeName": "GOLD_EARNED",
          "m_nDataVersion": 0
        },
        {
          "value": 8,
          "statTypeName": "NUM_DEATHS",
          "m_nDataVersion": 0
        },
        {
          "value": 1,
          "statTypeName": "LARGEST_MULTI_KILL",
          "m_nDataVersion": 0
        },
        {
          "value": 0,
          "statTypeName": "BARRACKS_KILLED",
          "m_nDataVersion": 0
        },
        {
          "value": 4,
          "statTypeName": "WARD_PLACED",
          "m_nDataVersion": 0
        },
        {
          "value": 14308,
          "statTypeName": "TRUE_DAMAGE_DEALT_PLAYER",
          "m_nDataVersion": 0
        },
        {
          "value": 16,
          "statTypeName": "LEVEL",
          "m_nDataVersion": 0
        },
        {
          "value": 2,
          "statTypeName": "LARGEST_KILLING_SPREE",
          "m_nDataVersion": 0
        },
        {
          "value": 1,
          "statTypeName": "LOSE",
          "m_nDataVersion": 0
        },
        {
          "value": 90,
          "statTypeName": "NEUTRAL_MINIONS_KILLED_YOUR_JUNGLE",
          "m_nDataVersion": 0
        },
        {
          "value": 12061,
          "statTypeName": "TOTAL_DAMAGE_DEALT_TO_CHAMPIONS",
          "m_nDataVersion": 0
        },
        {
          "value": 0,
          "statTypeName": "ITEM5",
          "m_nDataVersion": 0
        },
        {
          "value": 20185,
          "statTypeName": "MAGIC_DAMAGE_TAKEN",
          "m_nDataVersion": 0
        },
        {
          "value": 109836,
          "statTypeName": "MAGIC_DAMAGE_DEALT_PLAYER",
          "m_nDataVersion": 0
        },
        {
          "value": 446,
          "statTypeName": "TRUE_DAMAGE_DEALT_TO_CHAMPIONS",
          "m_nDataVersion": 0
        },
        {
          "value": 3117,
          "statTypeName": "ITEM2",
          "m_nDataVersion": 0
        },
        {
          "value": 3,
          "statTypeName": "CHAMPIONS_KILLED",
          "m_nDataVersion": 0
        },
        {
          "value": 0,
          "statTypeName": "VISION_WARDS_BOUGHT_IN_GAME",
          "m_nDataVersion": 0
        },
        {
          "value": 0,
          "statTypeName": "TURRETS_KILLED",
          "m_nDataVersion": 0
        },
        {
          "value": 25334,
          "statTypeName": "PHYSICAL_DAMAGE_DEALT_PLAYER",
          "m_nDataVersion": 0
        },
        {
          "value": 38,
          "statTypeName": "MINIONS_KILLED",
          "m_nDataVersion": 0
        },
        {
          "value": 3207,
          "statTypeName": "ITEM1",
          "m_nDataVersion": 0
        }
      ]
    },
    {
      "level": 30,
      "teamId": 100,
      "isWinningTeam": false,
      "leaver": false,
      "summonerName": "J3romee",
      "skinName": "Garen",
      "profileIconId": 2,
      "botPlayer": false,
      "spell1Id": 4,
      "spell2Id": 14,
      "statistics": [
        {
          "value": 1031,
          "statTypeName": "ITEM3",
          "m_nDataVersion": 0
        },
        {
          "value": 0,
          "statTypeName": "NEUTRAL_MINIONS_KILLED_ENEMY_JUNGLE",
          "m_nDataVersion": 0
        },
        {
          "value": 924,
          "statTypeName": "TOTAL_TIME_CROWD_CONTROL_DEALT",
          "m_nDataVersion": 0
        },
        {
          "value": 211,
          "statTypeName": "TOTAL_TIME_SPENT_DEAD",
          "m_nDataVersion": 0
        },
        {
          "value": 9471,
          "statTypeName": "GOLD_EARNED",
          "m_nDataVersion": 0
        },
        {
          "value": 144,
          "statTypeName": "MINIONS_KILLED",
          "m_nDataVersion": 0
        },
        {
          "value": 3350,
          "statTypeName": "ITEM6",
          "m_nDataVersion": 0
        },
        {
          "value": 0,
          "statTypeName": "NEUTRAL_MINIONS_KILLED_YOUR_JUNGLE",
          "m_nDataVersion": 0
        },
        {
          "value": 3110,
          "statTypeName": "ITEM1",
          "m_nDataVersion": 0
        },
        {
          "value": 84494,
          "statTypeName": "PHYSICAL_DAMAGE_DEALT_PLAYER",
          "m_nDataVersion": 0
        },
        {
          "value": 4,
          "statTypeName": "ASSISTS",
          "m_nDataVersion": 0
        },
        {
          "value": 10820,
          "statTypeName": "PHYSICAL_DAMAGE_TAKEN",
          "m_nDataVersion": 0
        },
        {
          "value": 520,
          "statTypeName": "TRUE_DAMAGE_TAKEN",
          "m_nDataVersion": 0
        },
        {
          "value": 3139,
          "statTypeName": "ITEM2",
          "m_nDataVersion": 0
        },
        {
          "value": 0,
          "statTypeName": "LARGEST_CRITICAL_STRIKE",
          "m_nDataVersion": 0
        },
        {
          "value": 1,
          "statTypeName": "WARD_KILLED",
          "m_nDataVersion": 0
        },
        {
          "value": 0,
          "statTypeName": "SIGHT_WARDS_BOUGHT_IN_GAME",
          "m_nDataVersion": 0
        },
        {
          "value": 1022,
          "statTypeName": "TRUE_DAMAGE_DEALT_TO_CHAMPIONS",
          "m_nDataVersion": 0
        },
        {
          "value": 1022,
          "statTypeName": "TRUE_DAMAGE_DEALT_PLAYER",
          "m_nDataVersion": 0
        },
        {
          "value": 1,
          "statTypeName": "LARGEST_MULTI_KILL",
          "m_nDataVersion": 0
        },
        {
          "value": 7,
          "statTypeName": "NUM_DEATHS",
          "m_nDataVersion": 0
        },
        {
          "value": 15149,
          "statTypeName": "MAGIC_DAMAGE_TAKEN",
          "m_nDataVersion": 0
        },
        {
          "value": 0,
          "statTypeName": "BARRACKS_KILLED",
          "m_nDataVersion": 0
        },
        {
          "value": 26489,
          "statTypeName": "TOTAL_DAMAGE_TAKEN",
          "m_nDataVersion": 0
        },
        {
          "value": 1798,
          "statTypeName": "MAGIC_DAMAGE_DEALT_PLAYER",
          "m_nDataVersion": 0
        },
        {
          "value": 18864,
          "statTypeName": "TOTAL_DAMAGE_DEALT_TO_CHAMPIONS",
          "m_nDataVersion": 0
        },
        {
          "value": 3,
          "statTypeName": "LARGEST_KILLING_SPREE",
          "m_nDataVersion": 0
        },
        {
          "value": 16,
          "statTypeName": "LEVEL",
          "m_nDataVersion": 0
        },
        {
          "value": 7,
          "statTypeName": "WARD_PLACED",
          "m_nDataVersion": 0
        },
        {
          "value": 1,
          "statTypeName": "LOSE",
          "m_nDataVersion": 0
        },
        {
          "value": 0,
          "statTypeName": "NEUTRAL_MINIONS_KILLED",
          "m_nDataVersion": 0
        },
        {
          "value": 0,
          "statTypeName": "ITEM5",
          "m_nDataVersion": 0
        },
        {
          "value": 16044,
          "statTypeName": "PHYSICAL_DAMAGE_DEALT_TO_CHAMPIONS",
          "m_nDataVersion": 0
        },
        {
          "value": 0,
          "statTypeName": "ITEM4",
          "m_nDataVersion": 0
        },
        {
          "value": 0,
          "statTypeName": "TOTAL_HEAL",
          "m_nDataVersion": 0
        },
        {
          "value": 3047,
          "statTypeName": "ITEM0",
          "m_nDataVersion": 0
        },
        {
          "value": 1,
          "statTypeName": "TURRETS_KILLED",
          "m_nDataVersion": 0
        },
        {
          "value": 0,
          "statTypeName": "VISION_WARDS_BOUGHT_IN_GAME",
          "m_nDataVersion": 0
        },
        {
          "value": 1798,
          "statTypeName": "MAGIC_DAMAGE_DEALT_TO_CHAMPIONS",
          "m_nDataVersion": 0
        },
        {
          "value": 87315,
          "statTypeName": "TOTAL_DAMAGE_DEALT",
          "m_nDataVersion": 0
        },
        {
          "value": 5,
          "statTypeName": "CHAMPIONS_KILLED",
          "m_nDataVersion": 0
        }
      ]
    },
    {
      "level": 30,
      "teamId": 100,
      "isWinningTeam": false,
      "leaver": false,
      "summonerName": "superduperbawsss",
      "skinName": "Fizz",
      "profileIconId": 584,
      "botPlayer": false,
      "spell1Id": 4,
      "spell2Id": 14,
      "statistics": [
        {
          "value": 3100,
          "statTypeName": "ITEM2",
          "m_nDataVersion": 0
        },
        {
          "value": 136096,
          "statTypeName": "TOTAL_DAMAGE_DEALT",
          "m_nDataVersion": 0
        },
        {
          "value": 0,
          "statTypeName": "NEUTRAL_MINIONS_KILLED_ENEMY_JUNGLE",
          "m_nDataVersion": 0
        },
        {
          "value": 3191,
          "statTypeName": "ITEM5",
          "m_nDataVersion": 0
        },
        {
          "value": 1056,
          "statTypeName": "ITEM0",
          "m_nDataVersion": 0
        },
        {
          "value": 518,
          "statTypeName": "TOTAL_HEAL",
          "m_nDataVersion": 0
        },
        {
          "value": 536,
          "statTypeName": "TRUE_DAMAGE_TAKEN",
          "m_nDataVersion": 0
        },
        {
          "value": 3350,
          "statTypeName": "ITEM6",
          "m_nDataVersion": 0
        },
        {
          "value": 1244,
          "statTypeName": "TRUE_DAMAGE_DEALT_TO_CHAMPIONS",
          "m_nDataVersion": 0
        },
        {
          "value": 25133,
          "statTypeName": "TOTAL_DAMAGE_TAKEN",
          "m_nDataVersion": 0
        },
        {
          "value": 3386,
          "statTypeName": "PHYSICAL_DAMAGE_DEALT_TO_CHAMPIONS",
          "m_nDataVersion": 0
        },
        {
          "value": 9,
          "statTypeName": "NEUTRAL_MINIONS_KILLED_YOUR_JUNGLE",
          "m_nDataVersion": 0
        },
        {
          "value": 7,
          "statTypeName": "ASSISTS",
          "m_nDataVersion": 0
        },
        {
          "value": 103885,
          "statTypeName": "MAGIC_DAMAGE_DEALT_PLAYER",
          "m_nDataVersion": 0
        },
        {
          "value": 1244,
          "statTypeName": "TRUE_DAMAGE_DEALT_PLAYER",
          "m_nDataVersion": 0
        },
        {
          "value": 0,
          "statTypeName": "LARGEST_CRITICAL_STRIKE",
          "m_nDataVersion": 0
        },
        {
          "value": 16253,
          "statTypeName": "MAGIC_DAMAGE_TAKEN",
          "m_nDataVersion": 0
        },
        {
          "value": 299,
          "statTypeName": "TOTAL_TIME_SPENT_DEAD",
          "m_nDataVersion": 0
        },
        {
          "value": 0,
          "statTypeName": "SIGHT_WARDS_BOUGHT_IN_GAME",
          "m_nDataVersion": 0
        },
        {
          "value": 0,
          "statTypeName": "WARD_KILLED",
          "m_nDataVersion": 0
        },
        {
          "value": 5,
          "statTypeName": "WARD_PLACED",
          "m_nDataVersion": 0
        },
        {
          "value": 1,
          "statTypeName": "LARGEST_MULTI_KILL",
          "m_nDataVersion": 0
        },
        {
          "value": 0,
          "statTypeName": "BARRACKS_KILLED",
          "m_nDataVersion": 0
        },
        {
          "value": 10,
          "statTypeName": "NUM_DEATHS",
          "m_nDataVersion": 0
        },
        {
          "value": 25524,
          "statTypeName": "TOTAL_DAMAGE_DEALT_TO_CHAMPIONS",
          "m_nDataVersion": 0
        },
        {
          "value": 2,
          "statTypeName": "LARGEST_KILLING_SPREE",
          "m_nDataVersion": 0
        },
        {
          "value": 3135,
          "statTypeName": "ITEM4",
          "m_nDataVersion": 0
        },
        {
          "value": 3089,
          "statTypeName": "ITEM3",
          "m_nDataVersion": 0
        },
        {
          "value": 1,
          "statTypeName": "LOSE",
          "m_nDataVersion": 0
        },
        {
          "value": 17,
          "statTypeName": "LEVEL",
          "m_nDataVersion": 0
        },
        {
          "value": 30967,
          "statTypeName": "PHYSICAL_DAMAGE_DEALT_PLAYER",
          "m_nDataVersion": 0
        },
        {
          "value": 221,
          "statTypeName": "MINIONS_KILLED",
          "m_nDataVersion": 0
        },
        {
          "value": 3020,
          "statTypeName": "ITEM1",
          "m_nDataVersion": 0
        },
        {
          "value": 9,
          "statTypeName": "NEUTRAL_MINIONS_KILLED",
          "m_nDataVersion": 0
        },
        {
          "value": 12132,
          "statTypeName": "GOLD_EARNED",
          "m_nDataVersion": 0
        },
        {
          "value": 8344,
          "statTypeName": "PHYSICAL_DAMAGE_TAKEN",
          "m_nDataVersion": 0
        },
        {
          "value": 1,
          "statTypeName": "TURRETS_KILLED",
          "m_nDataVersion": 0
        },
        {
          "value": 0,
          "statTypeName": "VISION_WARDS_BOUGHT_IN_GAME",
          "m_nDataVersion": 0
        },
        {
          "value": 234,
          "statTypeName": "TOTAL_TIME_CROWD_CONTROL_DEALT",
          "m_nDataVersion": 0
        },
        {
          "value": 7,
          "statTypeName": "CHAMPIONS_KILLED",
          "m_nDataVersion": 0
        },
        {
          "value": 20894,
          "statTypeName": "MAGIC_DAMAGE_DEALT_TO_CHAMPIONS",
          "m_nDataVersion": 0
        }
      ]
    },
    {
      "level": 30,
      "teamId": 100,
      "isWinningTeam": false,
      "leaver": false,
      "summonerName": "Sanho",
      "skinName": "Sona",
      "profileIconId": 590,
      "botPlayer": false,
      "spell1Id": 4,
      "spell2Id": 3,
      "statistics": [
        {
          "value": 1029,
          "statTypeName": "ITEM5",
          "m_nDataVersion": 0
        },
        {
          "value": 0,
          "statTypeName": "NEUTRAL_MINIONS_KILLED_ENEMY_JUNGLE",
          "m_nDataVersion": 0
        },
        {
          "value": 14,
          "statTypeName": "MINIONS_KILLED",
          "m_nDataVersion": 0
        },
        {
          "value": 7826,
          "statTypeName": "TOTAL_HEAL",
          "m_nDataVersion": 0
        },
        {
          "value": 19899,
          "statTypeName": "TOTAL_DAMAGE_TAKEN",
          "m_nDataVersion": 0
        },
        {
          "value": 3024,
          "statTypeName": "ITEM4",
          "m_nDataVersion": 0
        },
        {
          "value": 21249,
          "statTypeName": "TOTAL_DAMAGE_DEALT",
          "m_nDataVersion": 0
        },
        {
          "value": 16118,
          "statTypeName": "MAGIC_DAMAGE_DEALT_PLAYER",
          "m_nDataVersion": 0
        },
        {
          "value": 3351,
          "statTypeName": "ITEM6",
          "m_nDataVersion": 0
        },
        {
          "value": 2049,
          "statTypeName": "ITEM0",
          "m_nDataVersion": 0
        },
        {
          "value": 11094,
          "statTypeName": "TOTAL_DAMAGE_DEALT_TO_CHAMPIONS",
          "m_nDataVersion": 0
        },
        {
          "value": 3111,
          "statTypeName": "ITEM3",
          "m_nDataVersion": 0
        },
        {
          "value": 0,
          "statTypeName": "NEUTRAL_MINIONS_KILLED_YOUR_JUNGLE",
          "m_nDataVersion": 0
        },
        {
          "value": 288,
          "statTypeName": "TRUE_DAMAGE_TAKEN",
          "m_nDataVersion": 0
        },
        {
          "value": 0,
          "statTypeName": "TRUE_DAMAGE_DEALT_PLAYER",
          "m_nDataVersion": 0
        },
        {
          "value": 10,
          "statTypeName": "ASSISTS",
          "m_nDataVersion": 0
        },
        {
          "value": 3,
          "statTypeName": "SIGHT_WARDS_BOUGHT_IN_GAME",
          "m_nDataVersion": 0
        },
        {
          "value": 0,
          "statTypeName": "LARGEST_CRITICAL_STRIKE",
          "m_nDataVersion": 0
        },
        {
          "value": 1,
          "statTypeName": "WARD_KILLED",
          "m_nDataVersion": 0
        },
        {
          "value": 3069,
          "statTypeName": "ITEM2",
          "m_nDataVersion": 0
        },
        {
          "value": 1,
          "statTypeName": "LARGEST_MULTI_KILL",
          "m_nDataVersion": 0
        },
        {
          "value": 7,
          "statTypeName": "NUM_DEATHS",
          "m_nDataVersion": 0
        },
        {
          "value": 0,
          "statTypeName": "BARRACKS_KILLED",
          "m_nDataVersion": 0
        },
        {
          "value": 1,
          "statTypeName": "LOSE",
          "m_nDataVersion": 0
        },
        {
          "value": 0,
          "statTypeName": "NEUTRAL_MINIONS_KILLED",
          "m_nDataVersion": 0
        },
        {
          "value": 3222,
          "statTypeName": "ITEM1",
          "m_nDataVersion": 0
        },
        {
          "value": 0,
          "statTypeName": "TRUE_DAMAGE_DEALT_TO_CHAMPIONS",
          "m_nDataVersion": 0
        },
        {
          "value": 5131,
          "statTypeName": "PHYSICAL_DAMAGE_DEALT_PLAYER",
          "m_nDataVersion": 0
        },
        {
          "value": 8698,
          "statTypeName": "MAGIC_DAMAGE_DEALT_TO_CHAMPIONS",
          "m_nDataVersion": 0
        },
        {
          "value": 14,
          "statTypeName": "LEVEL",
          "m_nDataVersion": 0
        },
        {
          "value": 0,
          "statTypeName": "LARGEST_KILLING_SPREE",
          "m_nDataVersion": 0
        },
        {
          "value": 35,
          "statTypeName": "TOTAL_TIME_CROWD_CONTROL_DEALT",
          "m_nDataVersion": 0
        },
        {
          "value": 11340,
          "statTypeName": "MAGIC_DAMAGE_TAKEN",
          "m_nDataVersion": 0
        },
        {
          "value": 22,
          "statTypeName": "WARD_PLACED",
          "m_nDataVersion": 0
        },
        {
          "value": 8333,
          "statTypeName": "GOLD_EARNED",
          "m_nDataVersion": 0
        },
        {
          "value": 8271,
          "statTypeName": "PHYSICAL_DAMAGE_TAKEN",
          "m_nDataVersion": 0
        },
        {
          "value": 0,
          "statTypeName": "TURRETS_KILLED",
          "m_nDataVersion": 0
        },
        {
          "value": 2,
          "statTypeName": "CHAMPIONS_KILLED",
          "m_nDataVersion": 0
        },
        {
          "value": 201,
          "statTypeName": "TOTAL_TIME_SPENT_DEAD",
          "m_nDataVersion": 0
        },
        {
          "value": 2,
          "statTypeName": "VISION_WARDS_BOUGHT_IN_GAME",
          "m_nDataVersion": 0
        },
        {
          "value": 2396,
          "statTypeName": "PHYSICAL_DAMAGE_DEALT_TO_CHAMPIONS",
          "m_nDataVersion": 0
        }
      ]
    }
  ],
  "otherTeamPlayerParticipantsSummaries": [
    {
      "level": 30,
      "teamId": 200,
      "isWinningTeam": true,
      "leaver": false,
      "summonerName": "FabulouSebas",
      "skinName": "Brand",
      "profileIconId": 515,
      "botPlayer": false,
      "spell1Id": 4,
      "spell2Id": 14,
      "statistics": [
        {
          "value": 138902,
          "statTypeName": "TOTAL_DAMAGE_DEALT",
          "m_nDataVersion": 0
        },
        {
          "value": 0,
          "statTypeName": "NEUTRAL_MINIONS_KILLED_ENEMY_JUNGLE",
          "m_nDataVersion": 0
        },
        {
          "value": 1190,
          "statTypeName": "TRUE_DAMAGE_DEALT_TO_CHAMPIONS",
          "m_nDataVersion": 0
        },
        {
          "value": 3001,
          "statTypeName": "ITEM5",
          "m_nDataVersion": 0
        },
        {
          "value": 3089,
          "statTypeName": "ITEM4",
          "m_nDataVersion": 0
        },
        {
          "value": 3255,
          "statTypeName": "ITEM3",
          "m_nDataVersion": 0
        },
        {
          "value": 1,
          "statTypeName": "WIN",
          "m_nDataVersion": 0
        },
        {
          "value": 1190,
          "statTypeName": "TRUE_DAMAGE_DEALT_PLAYER",
          "m_nDataVersion": 0
        },
        {
          "value": 15848,
          "statTypeName": "GOLD_EARNED",
          "m_nDataVersion": 0
        },
        {
          "value": 3116,
          "statTypeName": "ITEM1",
          "m_nDataVersion": 0
        },
        {
          "value": 3,
          "statTypeName": "NEUTRAL_MINIONS_KILLED_YOUR_JUNGLE",
          "m_nDataVersion": 0
        },
        {
          "value": 3350,
          "statTypeName": "ITEM6",
          "m_nDataVersion": 0
        },
        {
          "value": 290,
          "statTypeName": "TOTAL_TIME_SPENT_DEAD",
          "m_nDataVersion": 0
        },
        {
          "value": 15386,
          "statTypeName": "PHYSICAL_DAMAGE_DEALT_PLAYER",
          "m_nDataVersion": 0
        },
        {
          "value": 40080,
          "statTypeName": "TOTAL_DAMAGE_DEALT_TO_CHAMPIONS",
          "m_nDataVersion": 0
        },
        {
          "value": 11977,
          "statTypeName": "PHYSICAL_DAMAGE_TAKEN",
          "m_nDataVersion": 0
        },
        {
          "value": 9,
          "statTypeName": "ASSISTS",
          "m_nDataVersion": 0
        },
        {
          "value": 3135,
          "statTypeName": "ITEM2",
          "m_nDataVersion": 0
        },
        {
          "value": 3138,
          "statTypeName": "TOTAL_HEAL",
          "m_nDataVersion": 0
        },
        {
          "value": 2,
          "statTypeName": "SIGHT_WARDS_BOUGHT_IN_GAME",
          "m_nDataVersion": 0
        },
        {
          "value": 0,
          "statTypeName": "LARGEST_CRITICAL_STRIKE",
          "m_nDataVersion": 0
        },
        {
          "value": 1,
          "statTypeName": "WARD_KILLED",
          "m_nDataVersion": 0
        },
        {
          "value": 3,
          "statTypeName": "LARGEST_MULTI_KILL",
          "m_nDataVersion": 0
        },
        {
          "value": 1,
          "statTypeName": "BARRACKS_KILLED",
          "m_nDataVersion": 0
        },
        {
          "value": 9,
          "statTypeName": "NUM_DEATHS",
          "m_nDataVersion": 0
        },
        {
          "value": 10,
          "statTypeName": "WARD_PLACED",
          "m_nDataVersion": 0
        },
        {
          "value": 1475,
          "statTypeName": "PHYSICAL_DAMAGE_DEALT_TO_CHAMPIONS",
          "m_nDataVersion": 0
        },
        {
          "value": 17,
          "statTypeName": "LEVEL",
          "m_nDataVersion": 0
        },
        {
          "value": 2041,
          "statTypeName": "ITEM0",
          "m_nDataVersion": 0
        },
        {
          "value": 3,
          "statTypeName": "NEUTRAL_MINIONS_KILLED",
          "m_nDataVersion": 0
        },
        {
          "value": 544,
          "statTypeName": "TOTAL_TIME_CROWD_CONTROL_DEALT",
          "m_nDataVersion": 0
        },
        {
          "value": 1072,
          "statTypeName": "TRUE_DAMAGE_TAKEN",
          "m_nDataVersion": 0
        },
        {
          "value": 122326,
          "statTypeName": "MAGIC_DAMAGE_DEALT_PLAYER",
          "m_nDataVersion": 0
        },
        {
          "value": 15,
          "statTypeName": "CHAMPIONS_KILLED",
          "m_nDataVersion": 0
        },
        {
          "value": 6,
          "statTypeName": "LARGEST_KILLING_SPREE",
          "m_nDataVersion": 0
        },
        {
          "value": 13931,
          "statTypeName": "MAGIC_DAMAGE_TAKEN",
          "m_nDataVersion": 0
        },
        {
          "value": 0,
          "statTypeName": "VISION_WARDS_BOUGHT_IN_GAME",
          "m_nDataVersion": 0
        },
        {
          "value": 37415,
          "statTypeName": "MAGIC_DAMAGE_DEALT_TO_CHAMPIONS",
          "m_nDataVersion": 0
        },
        {
          "value": 0,
          "statTypeName": "TURRETS_KILLED",
          "m_nDataVersion": 0
        },
        {
          "value": 26980,
          "statTypeName": "TOTAL_DAMAGE_TAKEN",
          "m_nDataVersion": 0
        },
        {
          "value": 163,
          "statTypeName": "MINIONS_KILLED",
          "m_nDataVersion": 0
        }
      ]
    },
    {
      "level": 30,
      "teamId": 200,
      "isWinningTeam": true,
      "leaver": false,
      "summonerName": "Dubreuil",
      "skinName": "Ezreal",
      "profileIconId": 18,
      "botPlayer": false,
      "spell1Id": 21,
      "spell2Id": 4,
      "statistics": [
        {
          "value": 140,
          "statTypeName": "TOTAL_TIME_CROWD_CONTROL_DEALT",
          "m_nDataVersion": 0
        },
        {
          "value": 3250,
          "statTypeName": "ITEM3",
          "m_nDataVersion": 0
        },
        {
          "value": 8324,
          "statTypeName": "MAGIC_DAMAGE_DEALT_TO_CHAMPIONS",
          "m_nDataVersion": 0
        },
        {
          "value": 3035,
          "statTypeName": "ITEM4",
          "m_nDataVersion": 0
        },
        {
          "value": 765,
          "statTypeName": "LARGEST_CRITICAL_STRIKE",
          "m_nDataVersion": 0
        },
        {
          "value": 633,
          "statTypeName": "TRUE_DAMAGE_TAKEN",
          "m_nDataVersion": 0
        },
        {
          "value": 5,
          "statTypeName": "NEUTRAL_MINIONS_KILLED_ENEMY_JUNGLE",
          "m_nDataVersion": 0
        },
        {
          "value": 1,
          "statTypeName": "WIN",
          "m_nDataVersion": 0
        },
        {
          "value": 146454,
          "statTypeName": "PHYSICAL_DAMAGE_DEALT_PLAYER",
          "m_nDataVersion": 0
        },
        {
          "value": 179795,
          "statTypeName": "TOTAL_DAMAGE_DEALT",
          "m_nDataVersion": 0
        },
        {
          "value": 15307,
          "statTypeName": "GOLD_EARNED",
          "m_nDataVersion": 0
        },
        {
          "value": 19735,
          "statTypeName": "TOTAL_DAMAGE_DEALT_TO_CHAMPIONS",
          "m_nDataVersion": 0
        },
        {
          "value": 1055,
          "statTypeName": "ITEM0",
          "m_nDataVersion": 0
        },
        {
          "value": 9316,
          "statTypeName": "PHYSICAL_DAMAGE_TAKEN",
          "m_nDataVersion": 0
        },
        {
          "value": 3350,
          "statTypeName": "ITEM6",
          "m_nDataVersion": 0
        },
        {
          "value": 104,
          "statTypeName": "TOTAL_TIME_SPENT_DEAD",
          "m_nDataVersion": 0
        },
        {
          "value": 3078,
          "statTypeName": "ITEM2",
          "m_nDataVersion": 0
        },
        {
          "value": 11,
          "statTypeName": "ASSISTS",
          "m_nDataVersion": 0
        },
        {
          "value": 9,
          "statTypeName": "NEUTRAL_MINIONS_KILLED_YOUR_JUNGLE",
          "m_nDataVersion": 0
        },
        {
          "value": 290,
          "statTypeName": "TRUE_DAMAGE_DEALT_TO_CHAMPIONS",
          "m_nDataVersion": 0
        },
        {
          "value": 970,
          "statTypeName": "TOTAL_HEAL",
          "m_nDataVersion": 0
        },
        {
          "value": 0,
          "statTypeName": "SIGHT_WARDS_BOUGHT_IN_GAME",
          "m_nDataVersion": 0
        },
        {
          "value": 0,
          "statTypeName": "WARD_KILLED",
          "m_nDataVersion": 0
        },
        {
          "value": 202,
          "statTypeName": "MINIONS_KILLED",
          "m_nDataVersion": 0
        },
        {
          "value": 3,
          "statTypeName": "LARGEST_MULTI_KILL",
          "m_nDataVersion": 0
        },
        {
          "value": 6893,
          "statTypeName": "MAGIC_DAMAGE_TAKEN",
          "m_nDataVersion": 0
        },
        {
          "value": 3,
          "statTypeName": "WARD_PLACED",
          "m_nDataVersion": 0
        },
        {
          "value": 11121,
          "statTypeName": "PHYSICAL_DAMAGE_DEALT_TO_CHAMPIONS",
          "m_nDataVersion": 0
        },
        {
          "value": 3026,
          "statTypeName": "ITEM5",
          "m_nDataVersion": 0
        },
        {
          "value": 5,
          "statTypeName": "LARGEST_KILLING_SPREE",
          "m_nDataVersion": 0
        },
        {
          "value": 18,
          "statTypeName": "LEVEL",
          "m_nDataVersion": 0
        },
        {
          "value": 32360,
          "statTypeName": "MAGIC_DAMAGE_DEALT_PLAYER",
          "m_nDataVersion": 0
        },
        {
          "value": 980,
          "statTypeName": "TRUE_DAMAGE_DEALT_PLAYER",
          "m_nDataVersion": 0
        },
        {
          "value": 16843,
          "statTypeName": "TOTAL_DAMAGE_TAKEN",
          "m_nDataVersion": 0
        },
        {
          "value": 14,
          "statTypeName": "NEUTRAL_MINIONS_KILLED",
          "m_nDataVersion": 0
        },
        {
          "value": 1,
          "statTypeName": "TURRETS_KILLED",
          "m_nDataVersion": 0
        },
        {
          "value": 3,
          "statTypeName": "NUM_DEATHS",
          "m_nDataVersion": 0
        },
        {
          "value": 0,
          "statTypeName": "VISION_WARDS_BOUGHT_IN_GAME",
          "m_nDataVersion": 0
        },
        {
          "value": 2,
          "statTypeName": "BARRACKS_KILLED",
          "m_nDataVersion": 0
        },
        {
          "value": 8,
          "statTypeName": "CHAMPIONS_KILLED",
          "m_nDataVersion": 0
        },
        {
          "value": 3072,
          "statTypeName": "ITEM1",
          "m_nDataVersion": 0
        }
      ]
    },
    {
      "level": 30,
      "teamId": 200,
      "isWinningTeam": true,
      "leaver": false,
      "summonerName": "louptony",
      "skinName": "Udyr",
      "profileIconId": 536,
      "botPlayer": false,
      "spell1Id": 4,
      "spell2Id": 11,
      "statistics": [
        {
          "value": 3065,
          "statTypeName": "ITEM1",
          "m_nDataVersion": 0
        },
        {
          "value": 16355,
          "statTypeName": "PHYSICAL_DAMAGE_TAKEN",
          "m_nDataVersion": 0
        },
        {
          "value": 1,
          "statTypeName": "WIN",
          "m_nDataVersion": 0
        },
        {
          "value": 3026,
          "statTypeName": "ITEM0",
          "m_nDataVersion": 0
        },
        {
          "value": 11022,
          "statTypeName": "PHYSICAL_DAMAGE_DEALT_TO_CHAMPIONS",
          "m_nDataVersion": 0
        },
        {
          "value": 500,
          "statTypeName": "LARGEST_CRITICAL_STRIKE",
          "m_nDataVersion": 0
        },
        {
          "value": 3350,
          "statTypeName": "ITEM6",
          "m_nDataVersion": 0
        },
        {
          "value": 3143,
          "statTypeName": "ITEM2",
          "m_nDataVersion": 0
        },
        {
          "value": 21144,
          "statTypeName": "TOTAL_DAMAGE_DEALT_TO_CHAMPIONS",
          "m_nDataVersion": 0
        },
        {
          "value": 17,
          "statTypeName": "NEUTRAL_MINIONS_KILLED_ENEMY_JUNGLE",
          "m_nDataVersion": 0
        },
        {
          "value": 3047,
          "statTypeName": "ITEM3",
          "m_nDataVersion": 0
        },
        {
          "value": 12038,
          "statTypeName": "MAGIC_DAMAGE_TAKEN",
          "m_nDataVersion": 0
        },
        {
          "value": 99334,
          "statTypeName": "MAGIC_DAMAGE_DEALT_PLAYER",
          "m_nDataVersion": 0
        },
        {
          "value": 3078,
          "statTypeName": "ITEM4",
          "m_nDataVersion": 0
        },
        {
          "value": 8,
          "statTypeName": "ASSISTS",
          "m_nDataVersion": 0
        },
        {
          "value": 520,
          "statTypeName": "TRUE_DAMAGE_TAKEN",
          "m_nDataVersion": 0
        },
        {
          "value": 14948,
          "statTypeName": "TRUE_DAMAGE_DEALT_PLAYER",
          "m_nDataVersion": 0
        },
        {
          "value": 93,
          "statTypeName": "NEUTRAL_MINIONS_KILLED",
          "m_nDataVersion": 0
        },
        {
          "value": 0,
          "statTypeName": "SIGHT_WARDS_BOUGHT_IN_GAME",
          "m_nDataVersion": 0
        },
        {
          "value": 0,
          "statTypeName": "WARD_KILLED",
          "m_nDataVersion": 0
        },
        {
          "value": 98245,
          "statTypeName": "PHYSICAL_DAMAGE_DEALT_PLAYER",
          "m_nDataVersion": 0
        },
        {
          "value": 3,
          "statTypeName": "LARGEST_MULTI_KILL",
          "m_nDataVersion": 0
        },
        {
          "value": 28914,
          "statTypeName": "TOTAL_DAMAGE_TAKEN",
          "m_nDataVersion": 0
        },
        {
          "value": 15737,
          "statTypeName": "GOLD_EARNED",
          "m_nDataVersion": 0
        },
        {
          "value": 0,
          "statTypeName": "BARRACKS_KILLED",
          "m_nDataVersion": 0
        },
        {
          "value": 122,
          "statTypeName": "MINIONS_KILLED",
          "m_nDataVersion": 0
        },
        {
          "value": 10,
          "statTypeName": "WARD_PLACED",
          "m_nDataVersion": 0
        },
        {
          "value": 18,
          "statTypeName": "LEVEL",
          "m_nDataVersion": 0
        },
        {
          "value": 0,
          "statTypeName": "ITEM5",
          "m_nDataVersion": 0
        },
        {
          "value": 3193,
          "statTypeName": "TOTAL_HEAL",
          "m_nDataVersion": 0
        },
        {
          "value": 11,
          "statTypeName": "CHAMPIONS_KILLED",
          "m_nDataVersion": 0
        },
        {
          "value": 1312,
          "statTypeName": "TOTAL_TIME_CROWD_CONTROL_DEALT",
          "m_nDataVersion": 0
        },
        {
          "value": 8,
          "statTypeName": "LARGEST_KILLING_SPREE",
          "m_nDataVersion": 0
        },
        {
          "value": 3,
          "statTypeName": "NUM_DEATHS",
          "m_nDataVersion": 0
        },
        {
          "value": 0,
          "statTypeName": "VISION_WARDS_BOUGHT_IN_GAME",
          "m_nDataVersion": 0
        },
        {
          "value": 686,
          "statTypeName": "TRUE_DAMAGE_DEALT_TO_CHAMPIONS",
          "m_nDataVersion": 0
        },
        {
          "value": 3,
          "statTypeName": "TURRETS_KILLED",
          "m_nDataVersion": 0
        },
        {
          "value": 212528,
          "statTypeName": "TOTAL_DAMAGE_DEALT",
          "m_nDataVersion": 0
        },
        {
          "value": 127,
          "statTypeName": "TOTAL_TIME_SPENT_DEAD",
          "m_nDataVersion": 0
        },
        {
          "value": 76,
          "statTypeName": "NEUTRAL_MINIONS_KILLED_YOUR_JUNGLE",
          "m_nDataVersion": 0
        },
        {
          "value": 9435,
          "statTypeName": "MAGIC_DAMAGE_DEALT_TO_CHAMPIONS",
          "m_nDataVersion": 0
        }
      ]
    },
    {
      "level": 30,
      "teamId": 200,
      "isWinningTeam": true,
      "leaver": false,
      "summonerName": "Chocoman22",
      "skinName": "Leona",
      "profileIconId": 581,
      "botPlayer": false,
      "spell1Id": 3,
      "spell2Id": 4,
      "statistics": [
        {
          "value": 3401,
          "statTypeName": "ITEM0",
          "m_nDataVersion": 0
        },
        {
          "value": 3190,
          "statTypeName": "ITEM1",
          "m_nDataVersion": 0
        },
        {
          "value": 144,
          "statTypeName": "TOTAL_TIME_CROWD_CONTROL_DEALT",
          "m_nDataVersion": 0
        },
        {
          "value": 0,
          "statTypeName": "NEUTRAL_MINIONS_KILLED_ENEMY_JUNGLE",
          "m_nDataVersion": 0
        },
        {
          "value": 874,
          "statTypeName": "TRUE_DAMAGE_TAKEN",
          "m_nDataVersion": 0
        },
        {
          "value": 1,
          "statTypeName": "WIN",
          "m_nDataVersion": 0
        },
        {
          "value": 6159,
          "statTypeName": "MAGIC_DAMAGE_TAKEN",
          "m_nDataVersion": 0
        },
        {
          "value": 20,
          "statTypeName": "ASSISTS",
          "m_nDataVersion": 0
        },
        {
          "value": 3350,
          "statTypeName": "ITEM6",
          "m_nDataVersion": 0
        },
        {
          "value": 3143,
          "statTypeName": "ITEM2",
          "m_nDataVersion": 0
        },
        {
          "value": 40,
          "statTypeName": "TOTAL_TIME_SPENT_DEAD",
          "m_nDataVersion": 0
        },
        {
          "value": 0,
          "statTypeName": "NEUTRAL_MINIONS_KILLED_YOUR_JUNGLE",
          "m_nDataVersion": 0
        },
        {
          "value": 13943,
          "statTypeName": "MAGIC_DAMAGE_DEALT_PLAYER",
          "m_nDataVersion": 0
        },
        {
          "value": 114,
          "statTypeName": "TRUE_DAMAGE_DEALT_TO_CHAMPIONS",
          "m_nDataVersion": 0
        },
        {
          "value": 3521,
          "statTypeName": "TRUE_DAMAGE_DEALT_PLAYER",
          "m_nDataVersion": 0
        },
        {
          "value": 22107,
          "statTypeName": "TOTAL_DAMAGE_TAKEN",
          "m_nDataVersion": 0
        },
        {
          "value": 26935,
          "statTypeName": "TOTAL_DAMAGE_DEALT",
          "m_nDataVersion": 0
        },
        {
          "value": 15073,
          "statTypeName": "PHYSICAL_DAMAGE_TAKEN",
          "m_nDataVersion": 0
        },
        {
          "value": 4,
          "statTypeName": "SIGHT_WARDS_BOUGHT_IN_GAME",
          "m_nDataVersion": 0
        },
        {
          "value": 0,
          "statTypeName": "LARGEST_CRITICAL_STRIKE",
          "m_nDataVersion": 0
        },
        {
          "value": 1,
          "statTypeName": "WARD_KILLED",
          "m_nDataVersion": 0
        },
        {
          "value": 2257,
          "statTypeName": "PHYSICAL_DAMAGE_DEALT_TO_CHAMPIONS",
          "m_nDataVersion": 0
        },
        {
          "value": 831,
          "statTypeName": "TOTAL_HEAL",
          "m_nDataVersion": 0
        },
        {
          "value": 1,
          "statTypeName": "LARGEST_MULTI_KILL",
          "m_nDataVersion": 0
        },
        {
          "value": 0,
          "statTypeName": "BARRACKS_KILLED",
          "m_nDataVersion": 0
        },
        {
          "value": 16,
          "statTypeName": "LEVEL",
          "m_nDataVersion": 0
        },
        {
          "value": 13099,
          "statTypeName": "GOLD_EARNED",
          "m_nDataVersion": 0
        },
        {
          "value": 2,
          "statTypeName": "LARGEST_KILLING_SPREE",
          "m_nDataVersion": 0
        },
        {
          "value": 0,
          "statTypeName": "NEUTRAL_MINIONS_KILLED",
          "m_nDataVersion": 0
        },
        {
          "value": 9469,
          "statTypeName": "PHYSICAL_DAMAGE_DEALT_PLAYER",
          "m_nDataVersion": 0
        },
        {
          "value": 0,
          "statTypeName": "ITEM5",
          "m_nDataVersion": 0
        },
        {
          "value": 6730,
          "statTypeName": "MAGIC_DAMAGE_DEALT_TO_CHAMPIONS",
          "m_nDataVersion": 0
        },
        {
          "value": 3111,
          "statTypeName": "ITEM4",
          "m_nDataVersion": 0
        },
        {
          "value": 21,
          "statTypeName": "WARD_PLACED",
          "m_nDataVersion": 0
        },
        {
          "value": 3,
          "statTypeName": "CHAMPIONS_KILLED",
          "m_nDataVersion": 0
        },
        {
          "value": 2045,
          "statTypeName": "ITEM3",
          "m_nDataVersion": 0
        },
        {
          "value": 3,
          "statTypeName": "TURRETS_KILLED",
          "m_nDataVersion": 0
        },
        {
          "value": 40,
          "statTypeName": "MINIONS_KILLED",
          "m_nDataVersion": 0
        },
        {
          "value": 3,
          "statTypeName": "VISION_WARDS_BOUGHT_IN_GAME",
          "m_nDataVersion": 0
        },
        {
          "value": 9102,
          "statTypeName": "TOTAL_DAMAGE_DEALT_TO_CHAMPIONS",
          "m_nDataVersion": 0
        },
        {
          "value": 1,
          "statTypeName": "NUM_DEATHS",
          "m_nDataVersion": 0
        }
      ]
    },
    {
      "level": 30,
      "teamId": 200,
      "isWinningTeam": true,
      "leaver": false,
      "summonerName": "Shizzo Wizzo",
      "skinName": "Warwick",
      "profileIconId": 581,
      "botPlayer": false,
      "spell1Id": 12,
      "spell2Id": 4,
      "statistics": [
        {
          "value": 1791,
          "statTypeName": "TRUE_DAMAGE_TAKEN",
          "m_nDataVersion": 0
        },
        {
          "value": 55169,
          "statTypeName": "PHYSICAL_DAMAGE_DEALT_PLAYER",
          "m_nDataVersion": 0
        },
        {
          "value": 4,
          "statTypeName": "NEUTRAL_MINIONS_KILLED_ENEMY_JUNGLE",
          "m_nDataVersion": 0
        },
        {
          "value": 3153,
          "statTypeName": "ITEM0",
          "m_nDataVersion": 0
        },
        {
          "value": 1,
          "statTypeName": "WIN",
          "m_nDataVersion": 0
        },
        {
          "value": 12687,
          "statTypeName": "MAGIC_DAMAGE_DEALT_TO_CHAMPIONS",
          "m_nDataVersion": 0
        },
        {
          "value": 17493,
          "statTypeName": "TOTAL_DAMAGE_DEALT_TO_CHAMPIONS",
          "m_nDataVersion": 0
        },
        {
          "value": 91117,
          "statTypeName": "TOTAL_DAMAGE_DEALT",
          "m_nDataVersion": 0
        },
        {
          "value": 3350,
          "statTypeName": "ITEM6",
          "m_nDataVersion": 0
        },
        {
          "value": 4805,
          "statTypeName": "PHYSICAL_DAMAGE_DEALT_TO_CHAMPIONS",
          "m_nDataVersion": 0
        },
        {
          "value": 0,
          "statTypeName": "NEUTRAL_MINIONS_KILLED_YOUR_JUNGLE",
          "m_nDataVersion": 0
        },
        {
          "value": 23472,
          "statTypeName": "PHYSICAL_DAMAGE_TAKEN",
          "m_nDataVersion": 0
        },
        {
          "value": 35611,
          "statTypeName": "TOTAL_DAMAGE_TAKEN",
          "m_nDataVersion": 0
        },
        {
          "value": 0,
          "statTypeName": "TRUE_DAMAGE_DEALT_PLAYER",
          "m_nDataVersion": 0
        },
        {
          "value": 16284,
          "statTypeName": "TOTAL_HEAL",
          "m_nDataVersion": 0
        },
        {
          "value": 13,
          "statTypeName": "ASSISTS",
          "m_nDataVersion": 0
        },
        {
          "value": 0,
          "statTypeName": "LARGEST_CRITICAL_STRIKE",
          "m_nDataVersion": 0
        },
        {
          "value": 1,
          "statTypeName": "WARD_KILLED",
          "m_nDataVersion": 0
        },
        {
          "value": 0,
          "statTypeName": "SIGHT_WARDS_BOUGHT_IN_GAME",
          "m_nDataVersion": 0
        },
        {
          "value": 1,
          "statTypeName": "LARGEST_MULTI_KILL",
          "m_nDataVersion": 0
        },
        {
          "value": 0,
          "statTypeName": "BARRACKS_KILLED",
          "m_nDataVersion": 0
        },
        {
          "value": 122,
          "statTypeName": "MINIONS_KILLED",
          "m_nDataVersion": 0
        },
        {
          "value": 3091,
          "statTypeName": "ITEM5",
          "m_nDataVersion": 0
        },
        {
          "value": 3028,
          "statTypeName": "ITEM3",
          "m_nDataVersion": 0
        },
        {
          "value": 16,
          "statTypeName": "LEVEL",
          "m_nDataVersion": 0
        },
        {
          "value": 2,
          "statTypeName": "LARGEST_KILLING_SPREE",
          "m_nDataVersion": 0
        },
        {
          "value": 1058,
          "statTypeName": "ITEM1",
          "m_nDataVersion": 0
        },
        {
          "value": 179,
          "statTypeName": "TOTAL_TIME_SPENT_DEAD",
          "m_nDataVersion": 0
        },
        {
          "value": 3191,
          "statTypeName": "ITEM2",
          "m_nDataVersion": 0
        },
        {
          "value": 55,
          "statTypeName": "TOTAL_TIME_CROWD_CONTROL_DEALT",
          "m_nDataVersion": 0
        },
        {
          "value": 35947,
          "statTypeName": "MAGIC_DAMAGE_DEALT_PLAYER",
          "m_nDataVersion": 0
        },
        {
          "value": 0,
          "statTypeName": "TRUE_DAMAGE_DEALT_TO_CHAMPIONS",
          "m_nDataVersion": 0
        },
        {
          "value": 11,
          "statTypeName": "WARD_PLACED",
          "m_nDataVersion": 0
        },
        {
          "value": 10347,
          "statTypeName": "MAGIC_DAMAGE_TAKEN",
          "m_nDataVersion": 0
        },
        {
          "value": 4,
          "statTypeName": "NEUTRAL_MINIONS_KILLED",
          "m_nDataVersion": 0
        },
        {
          "value": 12814,
          "statTypeName": "GOLD_EARNED",
          "m_nDataVersion": 0
        },
        {
          "value": 3259,
          "statTypeName": "ITEM4",
          "m_nDataVersion": 0
        },
        {
          "value": 0,
          "statTypeName": "VISION_WARDS_BOUGHT_IN_GAME",
          "m_nDataVersion": 0
        },
        {
          "value": 4,
          "statTypeName": "CHAMPIONS_KILLED",
          "m_nDataVersion": 0
        },
        {
          "value": 5,
          "statTypeName": "NUM_DEATHS",
          "m_nDataVersion": 0
        },
        {
          "value": 2,
          "statTypeName": "TURRETS_KILLED",
          "m_nDataVersion": 0
        }
      ]
    }
  ]
}